<?xml version="1.0" encoding="UTF-8"?>
<!DOCTYPE svg PUBLIC "-//W3C//DTD SVG 1.1//EN" "http://www.w3.org/Graphics/SVG/1.1/DTD/svg11.dtd">
<svg version="1.2" width="279.4mm" height="215.9mm" viewBox="0 0 27940 21590" preserveAspectRatio="xMidYMid" fill-rule="evenodd" stroke-width="28.222" stroke-linejoin="round" xmlns="http://www.w3.org/2000/svg" xmlns:ooo="http://xml.openoffice.org/svg/export" xmlns:xlink="http://www.w3.org/1999/xlink" xmlns:presentation="http://sun.com/xmlns/staroffice/presentation" xmlns:smil="http://www.w3.org/2001/SMIL20/" xmlns:anim="urn:oasis:names:tc:opendocument:xmlns:animation:1.0" xmlns:svg="urn:oasis:names:tc:opendocument:xmlns:svg-compatible:1.0" xml:space="preserve">
 <defs class="ClipPathGroup">
  <clipPath id="presentation_clip_path" clipPathUnits="userSpaceOnUse">
   <rect x="0" y="0" width="27940" height="21590"/>
  </clipPath>
  <clipPath id="presentation_clip_path_shrink" clipPathUnits="userSpaceOnUse">
   <rect x="27" y="21" width="27885" height="21547"/>
  </clipPath>
 </defs>
 <defs>
  <font id="EmbeddedFont_1" horiz-adv-x="2048">
   <font-face font-family="Liberation Sans embedded" units-per-em="2048" font-weight="normal" font-style="normal" ascent="1852" descent="423"/>
   <missing-glyph horiz-adv-x="2048" d="M 0,0 L 2047,0 2047,2047 0,2047 0,0 Z"/>
   <glyph unicode="x" horiz-adv-x="1006" d="M 801,0 L 510,444 217,0 23,0 408,556 41,1082 240,1082 510,661 778,1082 979,1082 612,558 1002,0 801,0 Z"/>
   <glyph unicode="w" horiz-adv-x="1509" d="M 1174,0 L 965,0 776,765 740,934 C 734,904 725,861 712,805 699,748 631,480 508,0 L 300,0 -3,1082 175,1082 358,347 C 363,331 377,265 401,149 L 418,223 644,1082 837,1082 1026,339 1072,149 1103,288 1308,1082 1484,1082 1174,0 Z"/>
   <glyph unicode="u" horiz-adv-x="874" d="M 314,1082 L 314,396 C 314,325 321,269 335,230 349,191 371,162 402,145 433,128 478,119 537,119 624,119 692,149 742,208 792,267 817,350 817,455 L 817,1082 997,1082 997,231 C 997,105 999,28 1003,0 L 833,0 C 832,3 832,12 831,27 830,42 830,59 829,78 828,97 826,132 825,185 L 822,185 C 781,110 733,58 679,27 624,-4 557,-20 476,-20 357,-20 271,10 216,69 161,128 133,225 133,361 L 133,1082 314,1082 Z"/>
   <glyph unicode="t" horiz-adv-x="531" d="M 554,8 C 495,-8 434,-16 372,-16 228,-16 156,66 156,229 L 156,951 31,951 31,1082 163,1082 216,1324 336,1324 336,1082 536,1082 536,951 336,951 336,268 C 336,216 345,180 362,159 379,138 408,127 450,127 474,127 509,132 554,141 L 554,8 Z"/>
   <glyph unicode="s" horiz-adv-x="901" d="M 950,299 C 950,197 912,118 835,63 758,8 650,-20 511,-20 376,-20 273,2 200,47 127,91 79,160 57,254 L 216,285 C 231,227 263,185 311,158 359,131 426,117 511,117 602,117 669,131 712,159 754,187 775,229 775,285 775,328 760,362 731,389 702,416 654,438 589,455 L 460,489 C 357,516 283,542 240,568 196,593 162,624 137,661 112,698 100,743 100,796 100,895 135,970 206,1022 276,1073 378,1099 513,1099 632,1099 727,1078 798,1036 868,994 912,927 931,834 L 769,814 C 759,862 732,899 689,925 645,950 586,963 513,963 432,963 372,951 333,926 294,901 275,864 275,814 275,783 283,758 299,738 315,718 339,701 370,687 401,673 467,654 568,629 663,605 732,583 774,563 816,542 849,520 874,495 898,470 917,442 930,410 943,377 950,340 950,299 Z"/>
   <glyph unicode="r" horiz-adv-x="530" d="M 142,0 L 142,830 C 142,906 140,990 136,1082 L 306,1082 C 311,959 314,886 314,861 L 318,861 C 347,954 380,1017 417,1051 454,1085 507,1102 575,1102 599,1102 623,1099 648,1092 L 648,927 C 624,934 592,937 552,937 477,937 420,905 381,841 342,776 322,684 322,564 L 322,0 142,0 Z"/>
   <glyph unicode="q" horiz-adv-x="927" d="M 484,-20 C 347,-20 246,26 182,119 118,212 86,351 86,536 86,913 219,1102 484,1102 566,1102 634,1088 687,1059 740,1030 785,981 821,914 L 823,914 C 823,934 824,969 827,1018 830,1067 832,1093 835,1096 L 1008,1096 C 1003,1057 1001,958 1001,801 L 1001,-425 821,-425 821,14 825,178 823,178 C 787,107 743,56 690,26 637,-5 569,-20 484,-20 Z M 821,554 C 821,695 798,799 752,867 706,935 633,969 532,969 441,969 375,935 335,867 295,799 275,691 275,542 275,391 295,282 336,217 376,152 441,119 530,119 632,119 706,155 752,228 798,301 821,409 821,554 Z"/>
   <glyph unicode="o" horiz-adv-x="980" d="M 1053,542 C 1053,353 1011,212 928,119 845,26 724,-20 565,-20 407,-20 288,28 207,125 126,221 86,360 86,542 86,915 248,1102 571,1102 736,1102 858,1057 936,966 1014,875 1053,733 1053,542 Z M 864,542 C 864,691 842,800 798,868 753,935 679,969 574,969 469,969 393,935 346,866 299,797 275,689 275,542 275,399 298,292 345,221 391,149 464,113 563,113 671,113 748,148 795,217 841,286 864,395 864,542 Z"/>
   <glyph unicode="n" horiz-adv-x="874" d="M 825,0 L 825,686 C 825,757 818,813 804,852 790,891 768,920 737,937 706,954 661,963 602,963 515,963 447,933 397,874 347,815 322,732 322,627 L 322,0 142,0 142,851 C 142,977 140,1054 136,1082 L 306,1082 C 307,1079 307,1070 308,1055 309,1040 310,1024 311,1005 312,986 313,950 314,897 L 317,897 C 358,972 406,1025 461,1056 515,1087 582,1102 663,1102 782,1102 869,1073 924,1014 979,955 1006,857 1006,721 L 1006,0 825,0 Z"/>
   <glyph unicode="m" horiz-adv-x="1457" d="M 768,0 L 768,686 C 768,791 754,863 725,903 696,943 645,963 570,963 493,963 433,934 388,875 343,816 321,734 321,627 L 321,0 142,0 142,851 C 142,977 140,1054 136,1082 L 306,1082 C 307,1079 307,1070 308,1055 309,1040 310,1024 311,1005 312,986 313,950 314,897 L 317,897 C 356,974 400,1027 450,1057 500,1087 561,1102 633,1102 715,1102 780,1086 828,1053 875,1020 908,968 927,897 L 930,897 C 967,970 1013,1022 1066,1054 1119,1086 1183,1102 1258,1102 1367,1102 1447,1072 1497,1013 1546,954 1571,856 1571,721 L 1571,0 1393,0 1393,686 C 1393,791 1379,863 1350,903 1321,943 1270,963 1195,963 1116,963 1055,934 1012,876 968,817 946,734 946,627 L 946,0 768,0 Z"/>
   <glyph unicode="l" horiz-adv-x="187" d="M 138,0 L 138,1484 318,1484 318,0 138,0 Z"/>
   <glyph unicode="i" horiz-adv-x="187" d="M 137,1312 L 137,1484 317,1484 317,1312 137,1312 Z M 137,0 L 137,1082 317,1082 317,0 137,0 Z"/>
   <glyph unicode="h" horiz-adv-x="874" d="M 317,897 C 356,968 402,1020 457,1053 511,1086 580,1102 663,1102 780,1102 867,1073 923,1015 978,956 1006,858 1006,721 L 1006,0 825,0 825,686 C 825,762 818,819 804,856 790,893 767,920 735,937 703,954 659,963 602,963 517,963 450,934 399,875 348,816 322,737 322,638 L 322,0 142,0 142,1484 322,1484 322,1098 C 322,1057 321,1015 319,972 316,929 315,904 314,897 L 317,897 Z"/>
   <glyph unicode="g" horiz-adv-x="927" d="M 548,-425 C 430,-425 336,-402 266,-356 196,-309 151,-243 131,-158 L 312,-132 C 324,-182 351,-220 392,-248 433,-274 486,-288 553,-288 732,-288 822,-183 822,27 L 822,201 820,201 C 786,132 739,80 680,45 621,10 551,-8 472,-8 339,-8 242,36 180,124 117,212 86,350 86,539 86,730 120,872 187,963 254,1054 355,1099 492,1099 569,1099 635,1082 692,1047 748,1012 791,962 822,897 L 824,897 C 824,917 825,952 828,1001 831,1050 833,1077 836,1082 L 1007,1082 C 1003,1046 1001,971 1001,858 L 1001,31 C 1001,-273 850,-425 548,-425 Z M 822,541 C 822,629 810,705 786,769 762,832 728,881 685,915 641,948 591,965 536,965 444,965 377,932 335,865 293,798 272,690 272,541 272,393 292,287 331,222 370,157 438,125 533,125 590,125 640,142 684,175 728,208 762,256 786,319 810,381 822,455 822,541 Z"/>
   <glyph unicode="e" horiz-adv-x="980" d="M 276,503 C 276,379 302,283 353,216 404,149 479,115 578,115 656,115 719,131 766,162 813,193 844,233 861,281 L 1019,236 C 954,65 807,-20 578,-20 418,-20 296,28 213,123 129,218 87,360 87,548 87,727 129,864 213,959 296,1054 416,1102 571,1102 889,1102 1048,910 1048,527 L 1048,503 276,503 Z M 862,641 C 852,755 823,838 775,891 727,943 658,969 568,969 481,969 412,940 361,882 310,823 282,743 278,641 L 862,641 Z"/>
   <glyph unicode="d" horiz-adv-x="927" d="M 821,174 C 788,105 744,55 689,25 634,-5 565,-20 484,-20 347,-20 247,26 183,118 118,210 86,349 86,536 86,913 219,1102 484,1102 566,1102 634,1087 689,1057 744,1027 788,979 821,914 L 823,914 821,1035 821,1484 1001,1484 1001,223 C 1001,110 1003,36 1007,0 L 835,0 C 833,11 831,35 829,74 826,113 825,146 825,174 L 821,174 Z M 275,542 C 275,391 295,282 335,217 375,152 440,119 530,119 632,119 706,154 752,225 798,296 821,405 821,554 821,697 798,802 752,869 706,936 633,969 532,969 441,969 376,936 336,869 295,802 275,693 275,542 Z"/>
   <glyph unicode="c" horiz-adv-x="901" d="M 275,546 C 275,402 298,295 343,226 388,157 457,122 548,122 612,122 666,139 709,174 752,209 778,262 788,334 L 970,322 C 956,218 912,135 837,73 762,11 668,-20 553,-20 402,-20 286,28 207,124 127,219 87,359 87,542 87,724 127,863 207,959 287,1054 402,1102 551,1102 662,1102 754,1073 827,1016 900,959 945,880 964,779 L 779,765 C 770,825 746,873 708,908 670,943 616,961 546,961 451,961 382,929 339,866 296,803 275,696 275,546 Z"/>
   <glyph unicode="a" horiz-adv-x="1060" d="M 414,-20 C 305,-20 224,9 169,66 114,123 87,202 87,302 87,414 124,500 198,560 271,620 390,652 554,656 L 797,660 797,719 C 797,807 778,870 741,908 704,946 645,965 565,965 484,965 426,951 389,924 352,897 330,853 323,793 L 135,810 C 166,1005 310,1102 569,1102 705,1102 807,1071 876,1009 945,946 979,856 979,738 L 979,272 C 979,219 986,179 1000,152 1014,125 1041,111 1080,111 1097,111 1117,113 1139,118 L 1139,6 C 1094,-5 1047,-10 1000,-10 933,-10 885,8 855,43 824,78 807,132 803,207 L 797,207 C 751,124 698,66 637,32 576,-3 501,-20 414,-20 Z M 455,115 C 521,115 580,130 631,160 682,190 723,231 753,284 782,336 797,390 797,445 L 797,534 600,530 C 515,529 451,520 408,504 364,488 330,463 307,430 284,397 272,353 272,299 272,240 288,195 320,163 351,131 396,115 455,115 Z"/>
   <glyph unicode="U" horiz-adv-x="1192" d="M 731,-20 C 616,-20 515,1 429,43 343,85 276,146 229,226 182,306 158,401 158,512 L 158,1409 349,1409 349,528 C 349,399 382,302 447,235 512,168 607,135 730,135 857,135 955,170 1026,239 1096,308 1131,408 1131,541 L 1131,1409 1321,1409 1321,530 C 1321,416 1297,318 1249,235 1200,152 1132,89 1044,46 955,2 851,-20 731,-20 Z"/>
   <glyph unicode="T" horiz-adv-x="1192" d="M 720,1253 L 720,0 530,0 530,1253 46,1253 46,1409 1204,1409 1204,1253 720,1253 Z"/>
   <glyph unicode="S" horiz-adv-x="1192" d="M 1272,389 C 1272,259 1221,158 1120,87 1018,16 875,-20 690,-20 347,-20 148,99 93,338 L 278,375 C 299,290 345,228 414,189 483,149 578,129 697,129 820,129 916,150 983,193 1050,235 1083,297 1083,379 1083,425 1073,462 1052,491 1031,520 1001,543 963,562 925,581 880,596 827,609 774,622 716,635 652,650 541,675 456,699 399,724 341,749 295,776 262,807 229,837 203,872 186,913 168,954 159,1000 159,1053 159,1174 205,1267 298,1332 390,1397 522,1430 694,1430 854,1430 976,1406 1061,1357 1146,1308 1205,1224 1239,1106 L 1051,1073 C 1030,1148 991,1202 933,1236 875,1269 795,1286 692,1286 579,1286 493,1267 434,1230 375,1193 345,1137 345,1063 345,1020 357,984 380,956 403,927 436,903 479,884 522,864 609,840 738,811 781,801 825,791 868,781 911,770 952,758 991,744 1030,729 1067,712 1102,693 1136,674 1166,650 1191,622 1216,594 1236,561 1251,523 1265,485 1272,440 1272,389 Z"/>
   <glyph unicode="R" horiz-adv-x="1244" d="M 1164,0 L 798,585 359,585 359,0 168,0 168,1409 831,1409 C 990,1409 1112,1374 1199,1303 1285,1232 1328,1133 1328,1006 1328,901 1298,813 1237,742 1176,671 1091,626 984,607 L 1384,0 1164,0 Z M 1136,1004 C 1136,1086 1108,1149 1053,1192 997,1235 917,1256 812,1256 L 359,1256 359,736 820,736 C 921,736 999,760 1054,807 1109,854 1136,919 1136,1004 Z"/>
   <glyph unicode="P" horiz-adv-x="1112" d="M 1258,985 C 1258,852 1215,746 1128,667 1041,588 922,549 773,549 L 359,549 359,0 168,0 168,1409 761,1409 C 919,1409 1041,1372 1128,1298 1215,1224 1258,1120 1258,985 Z M 1066,983 C 1066,1165 957,1256 738,1256 L 359,1256 359,700 746,700 C 959,700 1066,794 1066,983 Z"/>
   <glyph unicode="I" horiz-adv-x="213" d="M 189,0 L 189,1409 380,1409 380,0 189,0 Z"/>
   <glyph unicode="C" horiz-adv-x="1324" d="M 792,1274 C 636,1274 515,1224 428,1124 341,1023 298,886 298,711 298,538 343,400 434,295 524,190 646,137 800,137 997,137 1146,235 1245,430 L 1401,352 C 1343,231 1262,138 1157,75 1052,12 930,-20 791,-20 649,-20 526,10 423,69 319,128 240,212 186,322 131,431 104,561 104,711 104,936 165,1112 286,1239 407,1366 575,1430 790,1430 940,1430 1065,1401 1166,1342 1267,1283 1341,1196 1388,1081 L 1207,1021 C 1174,1103 1122,1166 1050,1209 977,1252 891,1274 792,1274 Z"/>
   <glyph unicode="-" horiz-adv-x="531" d="M 91,464 L 91,624 591,624 591,464 91,464 Z"/>
   <glyph unicode=" " horiz-adv-x="556"/>
  </font>
 </defs>
 <defs class="TextShapeIndex">
  <g ooo:slide="id1" ooo:id-list="id3 id4 id5 id6 id7 id8 id9 id10 id11 id12 id13"/>
 </defs>
 <defs class="EmbeddedBulletChars">
  <g id="bullet-char-template-57356" transform="scale(0.00048828125,-0.00048828125)">
   <path d="M 580,1141 L 1163,571 580,0 -4,571 580,1141 Z"/>
  </g>
  <g id="bullet-char-template-57354" transform="scale(0.00048828125,-0.00048828125)">
   <path d="M 8,1128 L 1137,1128 1137,0 8,0 8,1128 Z"/>
  </g>
  <g id="bullet-char-template-10146" transform="scale(0.00048828125,-0.00048828125)">
   <path d="M 174,0 L 602,739 174,1481 1456,739 174,0 Z M 1358,739 L 309,1346 659,739 1358,739 Z"/>
  </g>
  <g id="bullet-char-template-10132" transform="scale(0.00048828125,-0.00048828125)">
   <path d="M 2015,739 L 1276,0 717,0 1260,543 174,543 174,936 1260,936 717,1481 1274,1481 2015,739 Z"/>
  </g>
  <g id="bullet-char-template-10007" transform="scale(0.00048828125,-0.00048828125)">
   <path d="M 0,-2 C -7,14 -16,27 -25,37 L 356,567 C 262,823 215,952 215,954 215,979 228,992 255,992 264,992 276,990 289,987 310,991 331,999 354,1012 L 381,999 492,748 772,1049 836,1024 860,1049 C 881,1039 901,1025 922,1006 886,937 835,863 770,784 769,783 710,716 594,584 L 774,223 C 774,196 753,168 711,139 L 727,119 C 717,90 699,76 672,76 641,76 570,178 457,381 L 164,-76 C 142,-110 111,-127 72,-127 30,-127 9,-110 8,-76 1,-67 -2,-52 -2,-32 -2,-23 -1,-13 0,-2 Z"/>
  </g>
  <g id="bullet-char-template-10004" transform="scale(0.00048828125,-0.00048828125)">
   <path d="M 285,-33 C 182,-33 111,30 74,156 52,228 41,333 41,471 41,549 55,616 82,672 116,743 169,778 240,778 293,778 328,747 346,684 L 369,508 C 377,444 397,411 428,410 L 1163,1116 C 1174,1127 1196,1133 1229,1133 1271,1133 1292,1118 1292,1087 L 1292,965 C 1292,929 1282,901 1262,881 L 442,47 C 390,-6 338,-33 285,-33 Z"/>
  </g>
  <g id="bullet-char-template-9679" transform="scale(0.00048828125,-0.00048828125)">
   <path d="M 813,0 C 632,0 489,54 383,161 276,268 223,411 223,592 223,773 276,916 383,1023 489,1130 632,1184 813,1184 992,1184 1136,1130 1245,1023 1353,916 1407,772 1407,592 1407,412 1353,268 1245,161 1136,54 992,0 813,0 Z"/>
  </g>
  <g id="bullet-char-template-8226" transform="scale(0.00048828125,-0.00048828125)">
   <path d="M 346,457 C 273,457 209,483 155,535 101,586 74,649 74,723 74,796 101,859 155,911 209,963 273,989 346,989 419,989 480,963 531,910 582,859 608,796 608,723 608,648 583,586 532,535 482,483 420,457 346,457 Z"/>
  </g>
  <g id="bullet-char-template-8211" transform="scale(0.00048828125,-0.00048828125)">
   <path d="M -4,459 L 1135,459 1135,606 -4,606 -4,459 Z"/>
  </g>
  <g id="bullet-char-template-61548" transform="scale(0.00048828125,-0.00048828125)">
   <path d="M 173,740 C 173,903 231,1043 346,1159 462,1274 601,1332 765,1332 928,1332 1067,1274 1183,1159 1299,1043 1357,903 1357,740 1357,577 1299,437 1183,322 1067,206 928,148 765,148 601,148 462,206 346,322 231,437 173,577 173,740 Z"/>
  </g>
 </defs>
 <g>
  <g id="id2" class="Master_Slide">
   <g id="bg-id2" class="Background"/>
   <g id="bo-id2" class="BackgroundObjects"/>
  </g>
 </g>
 <g class="SlideGroup">
  <g>
   <g id="container-id1">
    <g id="id1" class="Slide" clip-path="url(#presentation_clip_path)">
     <g class="Page">
      <g class="com.sun.star.drawing.CustomShape">
       <g id="id3">
        <rect class="BoundingBox" stroke="none" fill="none" x="998" y="999" width="8990" height="7525"/>
        <path fill="rgb(114,159,207)" stroke="none" d="M 5493,8522 L 999,8522 999,1000 9986,1000 9986,8522 5493,8522 Z"/>
        <path fill="none" stroke="rgb(52,101,164)" d="M 5493,8522 L 999,8522 999,1000 9986,1000 9986,8522 5493,8522 Z"/>
        <text class="SVGTextShape"><tspan class="TextParagraph" font-family="Liberation Sans, sans-serif" font-size="1552px" font-weight="400"><tspan class="TextPosition" x="1779" y="5298"><tspan fill="rgb(0,0,0)" stroke="none" style="white-space: pre">User Code</tspan></tspan></tspan></text>
       </g>
      </g>
      <g class="com.sun.star.drawing.CustomShape">
       <g id="id4">
        <rect class="BoundingBox" stroke="none" fill="none" x="998" y="8549" width="8976" height="1199"/>
        <path fill="rgb(255,128,0)" stroke="none" d="M 5486,9746 L 999,9746 999,8550 9972,8550 9972,9746 5486,9746 Z"/>
        <path fill="none" stroke="rgb(52,101,164)" d="M 5486,9746 L 999,9746 999,8550 9972,8550 9972,9746 5486,9746 Z"/>
        <text class="SVGTextShape"><tspan class="TextParagraph" font-family="Liberation Sans, sans-serif" font-size="1058px" font-weight="400"><tspan class="TextPosition" x="1956" y="9514"><tspan fill="rgb(0,0,0)" stroke="none" style="white-space: pre">Context Switch</tspan></tspan></tspan></text>
       </g>
      </g>
      <g class="com.sun.star.drawing.CustomShape">
       <g id="id5">
        <rect class="BoundingBox" stroke="none" fill="none" x="10041" y="7604" width="8228" height="2275"/>
        <path fill="rgb(114,159,207)" stroke="none" d="M 18267,8173 L 12098,8173 12098,7605 10042,8741 12098,9877 12098,9309 18267,9309 18267,8173 Z"/>
        <path fill="none" stroke="rgb(52,101,164)" d="M 18267,8173 L 12098,8173 12098,7605 10042,8741 12098,9877 12098,9309 18267,9309 18267,8173 Z"/>
       </g>
      </g>
      <g class="TextShape">
       <g id="id6">
        <rect class="BoundingBox" stroke="none" fill="none" x="12284" y="4969" width="7449" height="4916"/>
        <text class="SVGTextShape"><tspan class="TextParagraph" font-family="Liberation Sans, sans-serif" font-size="1058px" font-weight="400"><tspan class="TextPosition" x="13587" y="6051"><tspan fill="rgb(0,0,0)" stroke="none" style="white-space: pre">Real-Time</tspan></tspan></tspan><tspan class="TextParagraph" font-family="Liberation Sans, sans-serif" font-size="1058px" font-weight="400"><tspan class="TextPosition" x="14038" y="7232"><tspan fill="rgb(0,0,0)" stroke="none" style="white-space: pre">Request</tspan></tspan></tspan></text>
       </g>
      </g>
      <g class="com.sun.star.drawing.CustomShape">
       <g id="id7">
        <rect class="BoundingBox" stroke="none" fill="none" x="998" y="12981" width="8990" height="7610"/>
        <path fill="rgb(114,159,207)" stroke="none" d="M 5493,20589 L 999,20589 999,12982 9986,12982 9986,20589 5493,20589 Z"/>
        <path fill="none" stroke="rgb(52,101,164)" d="M 5493,20589 L 999,20589 999,12982 9986,12982 9986,20589 5493,20589 Z"/>
        <text class="SVGTextShape"><tspan class="TextParagraph" font-family="Liberation Sans, sans-serif" font-size="1552px" font-weight="400"><tspan class="TextPosition" x="1779" y="17322"><tspan fill="rgb(0,0,0)" stroke="none" style="white-space: pre">User Code</tspan></tspan></tspan></text>
       </g>
      </g>
      <g class="com.sun.star.drawing.CustomShape">
       <g id="id8">
        <rect class="BoundingBox" stroke="none" fill="none" x="998" y="13396" width="8976" height="1139"/>
        <path fill="rgb(255,0,0)" stroke="none" d="M 5486,14533 L 999,14533 999,13397 9972,13397 9972,14533 5486,14533 Z"/>
        <path fill="none" stroke="rgb(52,101,164)" d="M 5486,14533 L 999,14533 999,13397 9972,13397 9972,14533 5486,14533 Z"/>
        <text class="SVGTextShape"><tspan class="TextParagraph" font-family="Liberation Sans, sans-serif" font-size="847px" font-weight="400"><tspan class="TextPosition" x="1863" y="14259"><tspan fill="rgb(0,0,0)" stroke="none" style="white-space: pre">Processing request</tspan></tspan></tspan></text>
       </g>
      </g>
      <g class="com.sun.star.drawing.LineShape">
       <g id="id9">
        <rect class="BoundingBox" stroke="none" fill="none" x="18389" y="8790" width="1950" height="5731"/>
        <path fill="none" stroke="rgb(52,101,164)" d="M 19347,9071 L 19347,14239"/>
        <path fill="rgb(52,101,164)" stroke="none" d="M 19197,9091 L 19347,8791 19497,9091 19197,9091 Z"/>
        <path fill="rgb(52,101,164)" stroke="none" d="M 19497,14219 L 19347,14519 19197,14219 19497,14219 Z"/>
        <text class="SVGTextShape" transform="rotate(90 19570 9243)"><tspan class="TextParagraph" font-family="Liberation Sans, sans-serif" font-size="1058px" font-weight="400"><tspan class="TextPosition" x="19570" y="9243"><tspan fill="rgb(0,0,0)" stroke="none" style="white-space: pre">Total Time</tspan></tspan></tspan><tspan class="TextParagraph" font-family="Liberation Sans, sans-serif" font-size="1058px" font-weight="400"><tspan class="TextPosition" x="18389" y="11508"><tspan fill="rgb(0,0,0)" stroke="none" style="white-space: pre"> </tspan></tspan></tspan></text>
       </g>
      </g>
      <g class="TextShape">
       <g id="id10">
        <rect class="BoundingBox" stroke="none" fill="none" x="13072" y="13121" width="831" height="2045"/>
       </g>
      </g>
      <g class="com.sun.star.drawing.LineShape">
       <g id="id11">
        <rect class="BoundingBox" stroke="none" fill="none" x="9922" y="14530" width="9452" height="3"/>
        <path fill="none" stroke="rgb(52,101,164)" d="M 19372,14531 L 9923,14531"/>
       </g>
      </g>
      <g class="com.sun.star.drawing.CustomShape">
       <g id="id12">
        <rect class="BoundingBox" stroke="none" fill="none" x="998" y="9744" width="8976" height="2102"/>
        <path fill="rgb(175,208,149)" stroke="none" d="M 5486,11844 L 999,11844 999,9745 9972,9745 9972,11844 5486,11844 Z"/>
        <path fill="none" stroke="rgb(52,101,164)" d="M 5486,11844 L 999,11844 999,9745 9972,9745 9972,11844 5486,11844 Z"/>
        <text class="SVGTextShape"><tspan class="TextParagraph" font-family="Liberation Sans, sans-serif" font-size="1270px" font-weight="400"><tspan class="TextPosition" x="4710" y="11234"><tspan fill="rgb(0,0,0)" stroke="none" style="white-space: pre">IPI</tspan></tspan></tspan></text>
       </g>
      </g>
      <g class="com.sun.star.drawing.CustomShape">
       <g id="id13">
        <rect class="BoundingBox" stroke="none" fill="none" x="998" y="11819" width="8976" height="1200"/>
        <path fill="rgb(255,128,0)" stroke="none" d="M 5486,13017 L 999,13017 999,11820 9972,11820 9972,13017 5486,13017 Z"/>
        <path fill="none" stroke="rgb(52,101,164)" d="M 5486,13017 L 999,13017 999,11820 9972,11820 9972,13017 5486,13017 Z"/>
        <text class="SVGTextShape"><tspan class="TextParagraph" font-family="Liberation Sans, sans-serif" font-size="1058px" font-weight="400"><tspan class="TextPosition" x="1956" y="12785"><tspan fill="rgb(0,0,0)" stroke="none" style="white-space: pre">Context Switch</tspan></tspan></tspan></text>
       </g>
      </g>
     </g>
    </g>
   </g>
  </g>
 </g>
</svg>